Using R functions on medstat data – Vitus Bering exploring the Data seas
…
$data
# A tibble: 619 × 6
   atc    year agegroup turnover DC      turnover1000k
   <chr> <dbl> <chr>       <dbl> <chr>           <dbl>
 1 A10A   2016 00-17        9354 INSULIN          9.35
 2 A10A   2016 00-17       10103 INSULIN         10.1 
 3 A10A   2016 00-17       19456 INSULIN         19.5 
 4 A10A   2016 18-24        7880 INSULIN          7.88
 5 A10A   2016 18-24       10883 INSULIN         10.9 
 6 A10A   2016 18-24       18763 INSULIN         18.8 
 7 A10A   2016 25-44       27658 INSULIN         27.7 
 8 A10A   2016 25-44       41457 INSULIN         41.5 
 9 A10A   2016 25-44       69115 INSULIN         69.1 
10 A10A   2016 45-64       67858 INSULIN         67.9 
# ℹ 609 more rows
…
$data
# A tibble: 621 × 6
   atc    year agegroup turnover DC      turnover1000k
   <chr> <dbl> <chr>       <dbl> <chr>           <dbl>
 1 A10A   2017 00-17        9197 INSULIN          9.20
 2 A10A   2017 00-17       10691 INSULIN         10.7 
 3 A10A   2017 00-17       19888 INSULIN         19.9 
 4 A10A   2017 18-24        8042 INSULIN          8.04
 5 A10A   2017 18-24       10468 INSULIN         10.5 
 6 A10A   2017 18-24       18509 INSULIN         18.5 
 7 A10A   2017 25-44       27295 INSULIN         27.3 
 8 A10A   2017 25-44       41429 INSULIN         41.4 
 9 A10A   2017 25-44       68724 INSULIN         68.7 
10 A10A   2017 45-64       70076 INSULIN         70.1 
# ℹ 611 more rows
…
$data
# A tibble: 607 × 6
   atc    year agegroup turnover DC      turnover1000k
   <chr> <dbl> <chr>       <dbl> <chr>           <dbl>
 1 A10A   2018 00-17        9467 INSULIN          9.47
 2 A10A   2018 00-17       11006 INSULIN         11.0 
 3 A10A   2018 00-17       20473 INSULIN         20.5 
 4 A10A   2018 18-24        8215 INSULIN          8.22
 5 A10A   2018 18-24       10421 INSULIN         10.4 
 6 A10A   2018 18-24       18636 INSULIN         18.6 
 7 A10A   2018 25-44       28126 INSULIN         28.1 
 8 A10A   2018 25-44       42639 INSULIN         42.6 
 9 A10A   2018 25-44       70765 INSULIN         70.8 
10 A10A   2018 45-64       72902 INSULIN         72.9 
# ℹ 597 more rows
…
$data
# A tibble: 601 × 6
   atc    year agegroup turnover DC      turnover1000k
   <chr> <dbl> <chr>       <dbl> <chr>           <dbl>
 1 A10A   2019 00-17        9599 INSULIN          9.60
 2 A10A   2019 00-17       11231 INSULIN         11.2 
 3 A10A   2019 00-17       20830 INSULIN         20.8 
 4 A10A   2019 18-24        7867 INSULIN          7.87
 5 A10A   2019 18-24       10313 INSULIN         10.3 
 6 A10A   2019 18-24       18180 INSULIN         18.2 
 7 A10A   2019 25-44       26903 INSULIN         26.9 
 8 A10A   2019 25-44       41402 INSULIN         41.4 
 9 A10A   2019 25-44       68305 INSULIN         68.3 
10 A10A   2019 45-64       69854 INSULIN         69.9 
# ℹ 591 more rows
…
$data
# A tibble: 609 × 6
   atc    year agegroup turnover DC      turnover1000k
   <chr> <dbl> <chr>       <dbl> <chr>           <dbl>
 1 A10A   2020 00-17        9272 INSULIN          9.27
 2 A10A   2020 00-17       10962 INSULIN         11.0 
 3 A10A   2020 00-17       20234 INSULIN         20.2 
 4 A10A   2020 18-24        7564 INSULIN          7.56
 5 A10A   2020 18-24        9789 INSULIN          9.79
 6 A10A   2020 18-24       17353 INSULIN         17.4 
 7 A10A   2020 25-44       26183 INSULIN         26.2 
 8 A10A   2020 25-44       39902 INSULIN         39.9 
 9 A10A   2020 25-44       66085 INSULIN         66.1 
10 A10A   2020 45-64       66259 INSULIN         66.3 
# ℹ 599 more rows
…
$data
# A tibble: 613 × 6
   atc    year agegroup turnover DC      turnover1000k
   <chr> <dbl> <chr>       <dbl> <chr>           <dbl>
 1 A10A   2021 00-17        9202 INSULIN          9.20
 2 A10A   2021 00-17       10907 INSULIN         10.9 
 3 A10A   2021 00-17       20109 INSULIN         20.1 
 4 A10A   2021 18-24        7484 INSULIN          7.48
 5 A10A   2021 18-24        9554 INSULIN          9.55
 6 A10A   2021 18-24       17038 INSULIN         17.0 
 7 A10A   2021 25-44       24773 INSULIN         24.8 
 8 A10A   2021 25-44       38364 INSULIN         38.4 
 9 A10A   2021 25-44       63137 INSULIN         63.1 
10 A10A   2021 45-64       61082 INSULIN         61.1 
# ℹ 603 more rows
…
$data
# A tibble: 609 × 6
   atc    year agegroup turnover DC      turnover1000k
   <chr> <dbl> <chr>       <dbl> <chr>           <dbl>
 1 A10A   2022 00-17        7502 INSULIN          7.50
 2 A10A   2022 00-17        8733 INSULIN          8.73
 3 A10A   2022 00-17       16235 INSULIN         16.2 
 4 A10A   2022 18-24        5899 INSULIN          5.90
 5 A10A   2022 18-24        7943 INSULIN          7.94
 6 A10A   2022 18-24       13841 INSULIN         13.8 
 7 A10A   2022 25-44       19962 INSULIN         20.0 
 8 A10A   2022 25-44       30580 INSULIN         30.6 
 9 A10A   2022 25-44       50543 INSULIN         50.5 
10 A10A   2022 45-64       49506 INSULIN         49.5 
# ℹ 599 more rows
…
$data
# A tibble: 563 × 6
   atc    year agegroup turnover DC      turnover1000k
   <chr> <dbl> <chr>       <dbl> <chr>           <dbl>
 1 A10A   2023 00-17        7510 INSULIN          7.51
 2 A10A   2023 00-17        8599 INSULIN          8.60
 3 A10A   2023 00-17       16109 INSULIN         16.1 
 4 A10A   2023 18-24        5980 INSULIN          5.98
 5 A10A   2023 18-24        8058 INSULIN          8.06
 6 A10A   2023 18-24       14039 INSULIN         14.0 
 7 A10A   2023 25-44       19680 INSULIN         19.7 
 8 A10A   2023 25-44       30630 INSULIN         30.6 
 9 A10A   2023 25-44       50311 INSULIN         50.3 
10 A10A   2023 45-64       46624 INSULIN         46.6 
# ℹ 553 more rows
…
